Should Be,Now
#1-50x60.,6I-S1JK-FW2L
#1-50x60.,NO15060
#1-50x60.,SF5060BBS
#1-66x90.,NO16690
#1-66x90.,SF6690BBS
#1-90x90.,NO18090
#1-90x90.,NO19090
#1-90x90.,SF8090BBS
#1-90x90.,SF9090BBS
#1-90x90.,TASF9090BBS
#17-50x60.,#1-50x60
#17-63x87.,#1-63x87
#17-90x90.,#1-90x90
11516-1354,A5-U7LI-LFOW
11516-1372,22-JHEZ-XGW4
11516-13X19,4PC-PM-FF
11516CC-1PC,1PC-FF-CC
11516CC-2PC,DB11516-2PC-CC-1616
11533-1354,DB11533-13x54
11533-1372,DB11533-1372
11533-2pc,DB11533CC-1616
11533-2pc,DB11533CC-1616-2pc
11533PM-1319,DB11533PM-13x19
12686-1PC,126-1PC
12686-1PC,TA 1PC-CC-12686
12686-1PC,12686-1pc-All
12686-2PC,126-2PC
12686-2PC,TA2PC-CC-12686
12900-1372,DB12900-1372
12900-1372,DB12900-13x72
12900-1390,DB12900-1390
12900-1390,DB12900-13x90
12900-13x54,MK-Z40F-88B9
12900-13x54,DB12900-13x54
12900-1pc,TA1PCDB12900CC-1616
12900-1pc,12900-1pc-All
12900-2PC,2PCDB12900-CC-1616
12900PM-1319,DB12900PM-13x18
12900PM-1319,DB12900PM-13x19
12910-1354,DB12910-13x54
12910-1372,DB12910-1372
12910-1pc,TA1PCDB12910CC-1616
12910-1pc,12910-1pc-All
12910-2PC,2PCDB12910CC-1616
12910PM-1319,DB12910PM-13x19
1351-1PC,135-1pc-All
1351-1PC,TA1PC-CC-1351
1351-1PC,1351-1pc-All
1351-2PC,TA2PC-CC-1351
1354-1PC,TA1PC-CC-1354
1354-1PC,1354-1pc-All
1354-2PC,TA2PC-CC-1354
1362-1PC,TA1PC-CC-1362
1362-1pc,1362-1pc-All
1362-2PC,TA2PC-CC-1362
1366-TB,TATB-1366
1367-TB,TATB-1367
14003-1PC,TA1PC-CC-14003
14003-2PC,TA2PC-CC-14003
14605-1pc,TA1PCDB14605-CC
14605-2pc,2PCDB14605CC
14605-2pc,DB14605-2PCCC-16X16
14605TR-13X54,DB14605-1354
14605TR-13X72,DB14605-1372
14605TR-13X90,DB14605-1390
15044-1PC,TA1PC-CC-15044
15044-1PC,15044-1pc-All
15044-2PC,TA2PC-CC-15044
15051-1PC,TA1PC-CC-15051
15051-1PC,15051-1pc-All
15051-2PC,TA2PC-CC-15051
15191-1pc,TA1PCDB15191CC-1616
15191-1pc,15191-1pc-All
156-1PC,TA1PC-CC-156
156-1PC,156-1pc-All
156-2PC,156-02PC-CC-ALL
156-2PC,TA2PC-CC-156
15705-1PC,15705-1pc-All
15862-1PC,15862-1pc-All
15870-1PC,15870-1pc-All
16375-1PC,16375-1pc-All
16377-1PC,16377-1pc-All
16380-1PC,16380-1pc-All
16461-1PC,16461-1pc-All
16543-1PC,16543-1pc-All
3089B-90,DSC3089B-35
3089B-9090,DSC3089B-35x35
5598-2CC,2PCDB3098CC-B-4545
5598-45,DBTC-3098-45
62096-63x87.,SM160220GR
9046-1pc,DB9046-1PCCC-16X16
9046-1pc,1PCDB9046-CC
9046-2pc,DB9046-2PCC-16X16
9046TR-13X48,DB9046-1348
9046TR-13X67,DB9046-1367
9046TR-13X90,DB9046-1390
Comforter DualColorBlue-C,DUALColorBlue-C
Comforter DualColorBlue-C,TACS6PC-DB-C
Comforter DualColorBlue-F,DUALColorBlue-F
Comforter DualColorBlue-F,TACS6PC-DB-F
Comforter DualColorBlue-K,DUALColorBlue-K
Comforter DualColorBlue-K,TACS6PC-DB-K
Comforter DualColorBlue-Q,DUALColorBlue-Q
Comforter DualColorBlue-Q,TACS6PC-DB-Q
Comforter DualColorBlue-S,DUALColorBlue-S
Comforter DualColorBlue-S,TACS4PC-DB-S
Comforter DualColorGreen-C,DUALColorGreen-C
Comforter DualColorGreen-C,TACS6PC-GB-C
Comforter DualColorGreen-F,DUALColorGreen-F
Comforter DualColorGreen-F,TACS6PC-GB-F
Comforter DualColorGreen-K,DUALColorGreen-K
Comforter DualColorGreen-K,TACS6PC-GB-K
Comforter DualColorGreen-Q,DUALColorGreen-Q
Comforter DualColorGreen-Q,TACS6PC-GB-Q
Comforter DualColorGreen-S,DUALColorGreen-S
Comforter DualColorGreen-S,TACS6PC-GB-S
Comforter DualColorPink-C,DUALColorPink-C
Comforter DualColorPink-C,TACS6PC-PB-C
Comforter DualColorPink-F,DUALColorPink-F
Comforter DualColorPink-F,TACS6PC-PB-F
Comforter DualColorPink-K,DUALColorPink-K
Comforter DualColorPink-K,TACS6PC-PB-K
Comforter DualColorPink-Q,DUALColorPink-Q
Comforter DualColorPink-Q,taCS6PC-PB-Q
Comforter DualColorPink-S,DUALColorPink-S
Comforter DualColorPink-S,TACS4PC-PB-S
Comforter DualColorPurple-C,DUAlColorPurple-C
Comforter DualColorPurple-C,TACS6PC-PP-C
Comforter DualColorPurple-K,DUAlColorPurple-K
Comforter DualColorPurple-K,TACS6PC-PP-K
Comforter DualColorPurple-Q,DUAlColorPurple-Q
Comforter DualColorPurple-Q,TACS6PC-PP-Q
Comforter DualColorPurple-S,DUAlColorPurple-S
Comforter DualColorPurple-S,TACS4PC-PP-S
Comforter DualColorRed-C,DUALColorRed-C
Comforter DualColorRed-C,TACS6PC-RB-C
Comforter DualColorRed-S,DUALColorRed-S
Comforter DualColorRed-S,TACS4PC-RB-S
Comforter DualColorYellGree-C,DUALColorYellGree-C
Comforter DualColorYellGree-C,TACS6PC-LL-C
Comforter DualColorYellGree-K,DUALColorYellGree-K
Comforter DualColorYellGree-K,TACS6PC-LL-K
DSC0004-K,DSC000-K
DSC0004-S,DSC000-T
DSW019 - Full,TA40-F
DSW019- Cal King,TA40-CK
DSW019- Queen,TA40-Q
DSW019-King,TA40-K
DXJ100072-20X30- 2PC,PCSD-DXJ100072
DXJ100077-CK,TAQSSS-DXJ10077-C
DXJ100077-CK,TAQSSS-DXJ10077-C
DXJ100077-F,TAQSSS-DXJ10077-F
DXJ100077-F,TAQSSS-DXJ10077-F
DXJ100077-K,TAQSSS-DXJ10077-K
DXJ100077-K,TAQSSS-DXJ10077-K
DXJ100077-Q,TAQSSS-DXJ10077-Q
DXJ100077-Q,TAQSSS-DXJ10077-Q
DXJ100077-T,TAQSSS-DXJ10077-S
DXJ100077-T,TAQSSS-DXJ10077-S
DXJ10076-C,TAQSEG-DXJ10076-C
DXJ10076-F,TAQSEG-DXJ10076-F
DXJ10076-K,9Y-6MTR-I7XD
DXJ10076-Q,TAQSEG-DXJ10076-Q
DXJ10076-S,TAQSEG-DXJ10076-S
DXJ101309-CK,TAQSSF-DXJ101309-C
DXJ101309-CK,TAQSSF-DXJ101309-C
DXJ101309-F,TAQSSF-DXJ101309-F
DXJ101309-F,TAQSSF-DXJ101309-F
DXJ101309-K,TAQSSF-DXJ101309-K
DXJ101309-K,TAQSSF-DXJ101309-K
DXJ101309-Q,TAQSSF-DXJ101309-Q
DXJ101309-Q,TAQSSF-DXJ101309-Q
DXJ101309-T,TAQSSF-DXJ101309-S
DXJ101309-T,TAQSSF-DXJ101309-S
DXJ103443-20x30,PCTP-DXJ103443
DXJ103443-20x36,PCTP-DXJ103443-20x36
DXJ103443-CC-1818,CCTP-DXJ103443
DXJ103443-CK,TAQSTP-DXJ103443-C
DXJ103443-CK,TAQSTP-DXJ103443-C
DXJ103443-F,TAQSTP-DXJ103443-F
DXJ103443-F,TAQSTP-DXJ103443-F
DXJ103443-K,QL-OU5X-K749
DXJ103443-K,QL-OU5X-K749
DXJ103443-Q,TAQSTP-DXJ103443-Q
DXJ103443-Q,TAQSTP-DXJ103443-Q
DXJ103443-T,TAQSTP-DXJ103443-S
DXJ103443-T,TAQSTP-DXJ103443-S
DXJ107076-F,TAQSSB-DXJ107076-F
DXJ107076-S,TAQSSB-DXJ107076-S
Flower Fuschia,FF10FH
Flower Green,FF09G
Flower L.Pink,FF06PI
Flower Orange,FF04O
Flower Red,FF08R
Flower Purple,FFPurple
Flower Yellow,FF07Y
Flower Fuschia,TAFF10FH
Flower Green,TAFF09G
Flower L.Pink,TAFF06PI
Flower Orange,TAFF04O
Flower Red,TAFF08R
Flower Purple,TAFFPurple
Flower Yellow,TAFF07Y
KST1503-Queen,KST1503-Q
Pillowcase Black,10012BC
Pillowcase Blue,10012-B
Pillowcase Pink,10012PI
Polar 50x60,TAFF5060BG
Polar 63x87,TAFF160220BG
Polar 90x90.,TAFF9090BG
SD8080-Cal King,TASDB0-Cal King
SD8080-Full,TASDB0-Full
SD8080-King,TASDB0-King
SD8080-Queen,SDB0-Queen
SD8080-Queen,TASDB0-Queen
TB300-199-Q,TAB00NH06LLC
WH-12442E,12442E
WH-3562HL2,356H2L
WH-DA11997,DA1997
WH-DA12243,DA12243
WH-DA13253,DA13253
WH-DA13571B,13571B
WH-DC14110,DC14110
YLGP-03-1PC,TA1PC-CC-YLGP-03
YLGP01-1pc,TA1PC-CC-YLGP-01
YLGP02-1pc,TA1PC-CC-YLGP-02
#17-90x90.,TA#1-90x90
Comforter DualColorBlue-K,DUALColorBlue-K
Comforter DualColorBlue-Q,DUALColorBlue-Q
Comforter DualColorBlue-S,DUALColorBlue-S
Comforter DualColorGreen-C,DUALColorGreen-C
Comforter DualColorGreen-F,DUALColorGreen-F
Comforter DualColorGreen-K,DUALColorGreen-K
Comforter DualColorGreen-Q,DUALColorGreen-Q
Comforter DualColorGreen-S,DUALColorGreen-S
Comforter DualColorPink-C,DUALColorPink-C
Comforter DualColorPink-F,DUALColorPink-F
Comforter DualColorPink-K,DUALColorPink-K
Comforter DualColorPink-Q,DUALColorPink-Q
Comforter DualColorPink-S,DUALColorPink-S
Comforter DualColorPurple-C,DUAlColorPurple-C
Comforter DualColorPurple-K,DUAlColorPurple-K
Comforter DualColorPurple-Q,DUAlColorPurple-Q
Comforter DualColorPurple-S,DUAlColorPurple-S
Comforter DualColorRed-C,DUALColorRed-C
Comforter DualColorRed-S,DUALColorRed-S
Comforter DualColorYellGree-C,DUALColorYellGree-C
Comforter DualColorYellGree-K,DUALColorYellGree-K
DXJ100077-CK,TAQSSS-DXJ10077-C
DXJ100077-F,TAQSSS-DXJ10077-F
DXJ100077-K,TAQSSS-DXJ10077-K
DXJ100077-Q,TAQSSS-DXJ10077-Q
DXJ100077-T,TAQSSS-DXJ10077-S
DXJ101309-CK,TAQSSF-DXJ101309-C
DXJ101309-F,TAQSSF-DXJ101309-F
DXJ101309-K,TAQSSF-DXJ101309-K
DXJ101309-Q,TAQSSF-DXJ101309-Q
DXJ101309-T,TAQSSF-DXJ101309-S
DXJ103443-CK,TAQSTP-DXJ103443-C
DXJ103443-F,TAQSTP-DXJ103443-F
DXJ103443-K,QL-OU5X-K749
DXJ103443-Q,TAQSTP-DXJ103443-Q
DXJ103443-T,TAQSTP-DXJ103443-S
DXJ107076-F,TAQSSB-DXJ107076-F
DXJ107076-S,TAQSSB-DXJ107076-S
HS3148Y-CK,HS3148-Cal king
HS3148Y-F,HS3148-Full
HS3148Y-K,HS3148-King
HS3148Y-Q,HS3148-Queen
JHW-595-CK,QSFH-DXJ109040-C
JHW-595-K,QSFH-DXJ109040-K
JHW-595-Q,QSFH-DXJ109040-Q
JHW-595-F,QSFH-DXJ109040-F
JHW-595-T,QSFH-DXJ109040-S
JHW-595-CK,TAQSFH-DXJ109040-C
JHW-595-K,TAQSFH-DXJ109040-K
JHW-595-Q,TAQSFH-DXJ109040-Q
JHW-595-F,TAQSFH-DXJ109040-F
JHW-595-T,TAQSFH-DXJ109040-S
SD5357-CK.,TASD3198-CK
SD5357-F.,TASD3198-F
SD5357-K.,TASD3198-K
SD5357-Q.,TASD3198-Q
SD5357-T.,TASD3198-S
20x30 Stripe Brown Rug,TACLB2032
KST1504-Cal King.,JHW-573-CK
KST1504-Full.,JHW-573-F
KST1504-King.,JHW-573-K
KST1504-Queen.,JHW-573-Q
KST1504-Single.,JHW-573-T
#17-63x87.,NEW#1-63x87
DSW019- Cal King,TA-SD-40-CK
DSW019 - Full,TA-SD-40-F
DSW019-King,TA-SD-40-K
DSW019- Queen,TA-SD-40-Q
Smiley Face Orange,TABSSH013
Fitted Sheet Green- Twin,BS2PC-GGS
Fitted Sheet Green- Queen,BS3PC-GG-Q
SD-11-CK,TASD2835-Cal King
SD-11-F,TASD2835-Full
SD-11-K,TASD2835-King
SD-11-Q,TASD2835-Queen
SD-11-F,TASD2835-Queen/Full
SD-11-Q,TASD2835-QueenQueen
SD-11-T,TASD2835-Single
K2-50X60,TASMF5060BR
JHW-888-C,JHW-650-CK
JHW-888-T,JHW-650-T
JHW-888-F,JHW-650-F
JHW-888-Q,JHW-650-Q
JHW-888-K,JHW-650-K
#1-66x90.,TASF6690BBS
#17-90x90.,NEW#1-90x90
DSW009 -Cal King,TADXJ106616-C
DSW009-King,TADXJ106616-K
DSW009-Queen,TADXJ106616-Q
DSW009-Full,TADXJ106616-F
2pc Rug Beige,2PCMF-B
3098-9090,TADBTC-5598-9090
5598-9090,TADBTC-3098-9090
KST1504-Cal King,NewKST1504-Cal King
Pillowcase White,MF-CW-PCC
62096-63x87.,0L-HY2E-RBV0
SD5357-CK.,TASD3198-Cal King
K2-50X60.,FFBlack5060
Fitted Sheet Blue-Twin.,BS2PC-BB-S
Fitted Sheet Green-Twin.,BS2PC-GG-S
12900-2PC,TADB12900CC-1616
Fitted Sheet Blue-Full,BS3PC-BB-F
Pillowcase Black,TA10012BC
Pillowcase Blue,TA10012-B
Pillowcase Pink,TA10012PI
3098TR-3PC,TADB5598TR-B-3PCST
3098TR-3PC,TADB5598TR-B-3PCST
12910-1pc,1PCDB12910CC-1616-ALL
Box of Tape,SPPE-189110
Box of Tape,SPTAPE-189110
WH-9148,TA9148
12690-1pc,12686-01PC-CC-ALL
WH-9148,9148
JHW-595-Q.,TATAQSFH-DXJ109040-Q
Reindeer Pillow,TATTS150312D
11516-2pc,2PC-FF-CC-ALL
11516-1pc,1PC-FF-CC-ALL
11516-2pc,TAFF11516CC-2PC
11516-1pc,1PC-FF-CC
3089-Black-CC-1pc,15705-01PC-CC-ALL
3089-Black-CC-2pc,TA15705-2PC
11533-2PC,TADB11533CC-1616
#17-50x60,TA#1-50x60
